multiplier.vcd
$date
	Mon Dec  9 15:43:56 2019
$end
$version
	Icarus Verilog
$end
$timescale
	1s
$end
$scope module test $end
$var wire 32 ! res [31:0] $end
$var wire 1 " done $end
$var reg 16 # A [15:0] $end
$var reg 16 $ B [15:0] $end
$var reg 1 % clk $end
$var reg 1 & start $end
$scope module dut $end
$var wire 16 ' A [15:0] $end
$var wire 16 ( B [15:0] $end
$var wire 1 % clk $end
$var wire 32 ) res [31:0] $end
$var wire 1 * sIn $end
$var wire 1 & start $end
$var wire 32 + toReg [31:0] $end
$var wire 32 , toAdder [31:0] $end
$var wire 32 - sum [31:0] $end
$var wire 2 . state [1:0] $end
$var wire 1 / reset2 $end
$var wire 1 0 reset1 $end
$var wire 2 1 regBmode [1:0] $end
$var wire 2 2 regAmode [1:0] $end
$var wire 1 3 reg2WrEn $end
$var wire 32 4 prevSum [31:0] $end
$var wire 16 5 pOutB [15:0] $end
$var wire 32 6 pOutA [31:0] $end
$var wire 1 " done $end
$var wire 2 7 count [1:0] $end
$scope module lut $end
$var wire 1 % clk $end
$var wire 1 & start $end
$var wire 2 8 count [1:0] $end
$var reg 1 " done $end
$var reg 1 3 reg2WrEn $end
$var reg 2 9 regAmode [1:0] $end
$var reg 2 : regBmode [1:0] $end
$var reg 1 0 reset1 $end
$var reg 1 / reset2 $end
$var reg 2 ; state [1:0] $end
$scope module controlCounter $end
$var wire 1 % clk $end
$var wire 1 0 reset1 $end
$var wire 1 / reset2 $end
$var wire 1 < wrenable $end
$var wire 2 = sum [1:0] $end
$var wire 2 > current [1:0] $end
$var wire 2 ? count [1:0] $end
$var wire 2 @ constant [1:0] $end
$scope module counterMux0 $end
$var wire 1 / address $end
$var wire 2 A input0 [1:0] $end
$var wire 2 B out [1:0] $end
$var wire 2 C input1 [1:0] $end
$upscope $end
$scope module counterMux1 $end
$var wire 1 0 address $end
$var wire 2 D input0 [1:0] $end
$var wire 2 E input1 [1:0] $end
$var wire 2 F out [1:0] $end
$upscope $end
$scope module counterReg $end
$var wire 1 % clk $end
$var wire 2 G d [1:0] $end
$var wire 1 < wrenable $end
$var reg 2 H q [1:0] $end
$upscope $end
$upscope $end
$upscope $end
$scope module opAmux $end
$var wire 1 I address $end
$var wire 32 J input0 [31:0] $end
$var wire 32 K out [31:0] $end
$var wire 32 L input1 [31:0] $end
$upscope $end
$scope module resetRegMux $end
$var wire 1 0 address $end
$var wire 32 M input0 [31:0] $end
$var wire 32 N input1 [31:0] $end
$var wire 32 O out [31:0] $end
$upscope $end
$scope module shiftregA $end
$var wire 1 % clk $end
$var wire 2 P mode [1:0] $end
$var wire 32 Q parallelIn [31:0] $end
$var wire 32 R parallelOut [31:0] $end
$var wire 1 * serialIn $end
$var reg 32 S memory [31:0] $end
$upscope $end
$scope module shiftregB $end
$var wire 1 % clk $end
$var wire 2 T mode [1:0] $end
$var wire 16 U parallelIn [15:0] $end
$var wire 16 V parallelOut [15:0] $end
$var wire 1 * serialIn $end
$var reg 16 W memory [15:0] $end
$upscope $end
$scope module sumReg $end
$var wire 1 % clk $end
$var wire 32 X d [31:0] $end
$var wire 1 3 wrenable $end
$var reg 32 Y q [31:0] $end
$upscope $end
$upscope $end
$upscope $end
$enddefinitions $end
#0
$dumpvars
bx Y
b0 X
b0 W
b0 V
b10000 U
b0 T
b0 S
b0 R
b10010 Q
b0 P
b0 O
bx N
b0 M
b0 L
b0 K
b0 J
0I
bx H
b0 G
b0 F
b1 E
b0 D
bx C
b0 B
b0 A
b0 @
bx ?
b0 >
b0 =
1<
b0 ;
b0 :
b0 9
bx 8
bx 7
b0 6
b0 5
bx 4
03
b0 2
b0 1
00
0/
b0 .
bx -
b0 ,
b0 +
0*
bx )
b10000 (
b10010 '
1&
0%
b10000 $
b10010 #
1"
bx !
$end
#5
0"
1/
13
b11 1
b11 :
b11 T
b11 2
b11 9
b11 P
b0 7
b0 8
b0 ?
b0 C
b0 H
b1 .
b1 ;
1%
#10
0%
0&
#15
b1 =
b1 G
b1 @
b1 F
10
b10 1
b10 :
b10 T
b1 2
b1 9
b1 P
b0 -
b0 N
b0 !
b0 )
b0 4
b0 Y
b10000 5
b10000 V
b10000 W
b10010 6
b10010 L
b10010 R
b10010 S
b10 .
b10 ;
1%
#20
0%
#25
b10 =
b10 G
b1 >
b1 B
b1 7
b1 8
b1 ?
b1 C
b1 H
b100100 6
b100100 L
b100100 R
b100100 S
b1000 5
b1000 V
b1000 W
1%
#30
0%
#35
b100 5
b100 V
b100 W
b1001000 6
b1001000 L
b1001000 R
b1001000 S
b11 =
b11 G
b10 >
b10 B
b10 7
b10 8
b10 ?
b10 C
b10 H
1%
#40
0%
#45
b0 =
b0 G
b11 >
b11 B
b11 7
b11 8
b11 ?
b11 C
b11 H
b10010000 6
b10010000 L
b10010000 R
b10010000 S
b10 5
b10 V
b10 W
1%
#50
0%
#55
b100100000 +
b100100000 O
b100100000 X
b100100000 -
b100100000 N
b100100000 ,
b100100000 K
1I
b1 5
b1 V
b1 W
b100100000 6
b100100000 L
b100100000 R
b100100000 S
b1 =
b1 G
b0 >
b0 B
b0 7
b0 8
b0 ?
b0 C
b0 H
1%
#60
0%
#65
0I
b10 =
b10 G
b1 >
b1 B
b1 7
b1 8
b1 ?
b1 C
b1 H
b0 ,
b0 K
b1001000000 6
b1001000000 L
b1001000000 R
b1001000000 S
b0 5
b0 V
b0 W
b100100000 +
b100100000 O
b100100000 X
b100100000 -
b100100000 N
b100100000 !
b100100000 )
b100100000 4
b100100000 Y
1%
#70
0%
#75
b10010000000 6
b10010000000 L
b10010000000 R
b10010000000 S
b11 =
b11 G
b10 >
b10 B
b10 7
b10 8
b10 ?
b10 C
b10 H
1%
#80
0%
#85
b0 =
b0 G
b11 >
b11 B
b11 7
b11 8
b11 ?
b11 C
b11 H
b100100000000 6
b100100000000 L
b100100000000 R
b100100000000 S
1%
#90
0%
#95
b1001000000000 6
b1001000000000 L
b1001000000000 R
b1001000000000 S
b1 =
b1 G
b0 >
b0 B
b0 7
b0 8
b0 ?
b0 C
b0 H
1%
#100
0%
#105
b10 =
b10 G
b1 >
b1 B
b1 7
b1 8
b1 ?
b1 C
b1 H
b10010000000000 6
b10010000000000 L
b10010000000000 R
b10010000000000 S
1%
#110
0%
#115
b100100000000000 6
b100100000000000 L
b100100000000000 R
b100100000000000 S
b11 =
b11 G
b10 >
b10 B
b10 7
b10 8
b10 ?
b10 C
b10 H
1%
#120
0%
#125
b0 =
b0 G
b11 >
b11 B
b11 7
b11 8
b11 ?
b11 C
b11 H
b1001000000000000 6
b1001000000000000 L
b1001000000000000 R
b1001000000000000 S
1%
#130
0%
#135
b10010000000000000 6
b10010000000000000 L
b10010000000000000 R
b10010000000000000 S
b1 =
b1 G
b0 >
b0 B
b0 7
b0 8
b0 ?
b0 C
b0 H
1%
#140
0%
#145
b10 =
b10 G
b1 >
b1 B
b1 7
b1 8
b1 ?
b1 C
b1 H
b100100000000000000 6
b100100000000000000 L
b100100000000000000 R
b100100000000000000 S
1%
#150
0%
#155
b1001000000000000000 6
b1001000000000000000 L
b1001000000000000000 R
b1001000000000000000 S
b11 =
b11 G
b10 >
b10 B
b10 7
b10 8
b10 ?
b10 C
b10 H
1%
#160
0%
#165
b0 =
b0 G
b11 >
b11 B
b11 7
b11 8
b11 ?
b11 C
b11 H
b10010000000000000000 6
b10010000000000000000 L
b10010000000000000000 R
b10010000000000000000 S
1%
#170
0%
#175
b100100000000000000000 6
b100100000000000000000 L
b100100000000000000000 R
b100100000000000000000 S
b1 =
b1 G
b0 >
b0 B
b0 7
b0 8
b0 ?
b0 C
b0 H
1%
#180
0%
#185
b10 =
b10 G
b1 >
b1 B
b1 7
b1 8
b1 ?
b1 C
b1 H
b1001000000000000000000 6
b1001000000000000000000 L
b1001000000000000000000 R
b1001000000000000000000 S
1%
#190
0%
#195
b10010000000000000000000 6
b10010000000000000000000 L
b10010000000000000000000 R
b10010000000000000000000 S
b11 =
b11 G
b10 >
b10 B
b10 7
b10 8
b10 ?
b10 C
b10 H
1%
#200
0%
#205
b0 =
b0 G
b11 >
b11 B
b11 7
b11 8
b11 ?
b11 C
b11 H
b100100000000000000000000 6
b100100000000000000000000 L
b100100000000000000000000 R
b100100000000000000000000 S
1%
#210
0%
#215
b1001000000000000000000000 6
b1001000000000000000000000 L
b1001000000000000000000000 R
b1001000000000000000000000 S
b1 =
b1 G
b0 >
b0 B
b0 7
b0 8
b0 ?
b0 C
b0 H
1%
#220
0%
#225
b10 =
b10 G
b1 >
b1 B
b1 7
b1 8
b1 ?
b1 C
b1 H
b10010000000000000000000000 6
b10010000000000000000000000 L
b10010000000000000000000000 R
b10010000000000000000000000 S
1%
#230
0%
#235
b100100000000000000000000000 6
b100100000000000000000000000 L
b100100000000000000000000000 R
b100100000000000000000000000 S
b11 =
b11 G
b10 >
b10 B
b10 7
b10 8
b10 ?
b10 C
b10 H
1%
#240
0%
#245
b0 =
b0 G
b11 >
b11 B
b11 7
b11 8
b11 ?
b11 C
b11 H
b1001000000000000000000000000 6
b1001000000000000000000000000 L
b1001000000000000000000000000 R
b1001000000000000000000000000 S
1%
#250
0%
#255
b10010000000000000000000000000 6
b10010000000000000000000000000 L
b10010000000000000000000000000 R
b10010000000000000000000000000 S
b1 =
b1 G
b0 >
b0 B
b0 7
b0 8
b0 ?
b0 C
b0 H
1%
#260
0%
#265
b10 =
b10 G
b1 >
b1 B
b1 7
b1 8
b1 ?
b1 C
b1 H
b100100000000000000000000000000 6
b100100000000000000000000000000 L
b100100000000000000000000000000 R
b100100000000000000000000000000 S
1%
#270
0%
#275
b1001000000000000000000000000000 6
b1001000000000000000000000000000 L
b1001000000000000000000000000000 R
b1001000000000000000000000000000 S
b11 =
b11 G
b10 >
b10 B
b10 7
b10 8
b10 ?
b10 C
b10 H
1%
#280
0%
#285
b0 =
b0 G
b11 >
b11 B
b11 7
b11 8
b11 ?
b11 C
b11 H
b10010000000000000000000000000000 6
b10010000000000000000000000000000 L
b10010000000000000000000000000000 R
b10010000000000000000000000000000 S
1%
#290
0%
#295
b100000000000000000000000000000 6
b100000000000000000000000000000 L
b100000000000000000000000000000 R
b100000000000000000000000000000 S
b1 =
b1 G
b0 >
b0 B
b0 7
b0 8
b0 ?
b0 C
b0 H
1%
#300
0%
#305
b10 =
b10 G
b1 >
b1 B
b1 7
b1 8
b1 ?
b1 C
b1 H
b1000000000000000000000000000000 6
b1000000000000000000000000000000 L
b1000000000000000000000000000000 R
b1000000000000000000000000000000 S
1%
#310
0%
#315
b10000000000000000000000000000000 6
b10000000000000000000000000000000 L
b10000000000000000000000000000000 R
b10000000000000000000000000000000 S
b11 =
b11 G
b10 >
b10 B
b10 7
b10 8
b10 ?
b10 C
b10 H
1%
#320
0%
#325
b0 =
b0 G
b11 >
b11 B
b11 7
b11 8
b11 ?
b11 C
b11 H
b0 6
b0 L
b0 R
b0 S
1%
#330
0%
#335
b1 =
b1 G
b0 >
b0 B
b0 7
b0 8
b0 ?
b0 C
b0 H
1%
#340
0%
#345
b10 =
b10 G
b1 >
b1 B
b1 7
b1 8
b1 ?
b1 C
b1 H
1%
#350
0%
#355
b11 =
b11 G
b10 >
b10 B
b10 7
b10 8
b10 ?
b10 C
b10 H
1%
#360
0%
#365
b0 =
b0 G
b11 >
b11 B
b11 7
b11 8
b11 ?
b11 C
b11 H
1%
#370
0%
#375
b1 =
b1 G
b0 >
b0 B
b0 7
b0 8
b0 ?
b0 C
b0 H
1%
#380
0%
#385
b10 =
b10 G
b1 >
b1 B
b1 7
b1 8
b1 ?
b1 C
b1 H
1%
#390
0%
#395
b11 =
b11 G
b10 >
b10 B
b10 7
b10 8
b10 ?
b10 C
b10 H
1%
#400
0%
#405
b0 =
b0 G
b11 >
b11 B
b11 7
b11 8
b11 ?
b11 C
b11 H
1%
#410
0%
#415
b1 =
b1 G
b0 >
b0 B
b0 7
b0 8
b0 ?
b0 C
b0 H
1%
#420
0%
#425
b10 =
b10 G
b1 >
b1 B
b1 7
b1 8
b1 ?
b1 C
b1 H
1%
#430
0%
#435
b11 =
b11 G
b10 >
b10 B
b10 7
b10 8
b10 ?
b10 C
b10 H
1%
#440
0%
#445
b0 =
b0 G
b11 >
b11 B
b11 7
b11 8
b11 ?
b11 C
b11 H
1%
#450
0%
#455
b1 =
b1 G
b0 >
b0 B
b0 7
b0 8
b0 ?
b0 C
b0 H
1%
#460
0%
#465
b10 =
b10 G
b1 >
b1 B
b1 7
b1 8
b1 ?
b1 C
b1 H
1%
#470
0%
#475
b11 =
b11 G
b10 >
b10 B
b10 7
b10 8
b10 ?
b10 C
b10 H
1%
#480
0%
#485
b0 =
b0 G
b11 >
b11 B
b11 7
b11 8
b11 ?
b11 C
b11 H
1%
#490
0%
#495
b1 =
b1 G
b0 >
b0 B
b0 7
b0 8
b0 ?
b0 C
b0 H
1%
#500
0%
#505
b10 =
b10 G
b1 >
b1 B
b1 7
b1 8
b1 ?
b1 C
b1 H
1%
#510
0%
#515
b11 =
b11 G
b10 >
b10 B
b10 7
b10 8
b10 ?
b10 C
b10 H
1%
#520
0%
#525
b0 =
b0 G
b11 >
b11 B
b11 7
b11 8
b11 ?
b11 C
b11 H
1%
#530
0%
#535
b1 =
b1 G
b0 >
b0 B
b0 7
b0 8
b0 ?
b0 C
b0 H
1%
#540
0%
#545
b10 =
b10 G
b1 >
b1 B
b1 7
b1 8
b1 ?
b1 C
b1 H
1%
#550
0%
#555
b11 =
b11 G
b10 >
b10 B
b10 7
b10 8
b10 ?
b10 C
b10 H
1%
#560
0%
#565
b0 =
b0 G
b11 >
b11 B
b11 7
b11 8
b11 ?
b11 C
b11 H
1%
#570
0%
#575
b1 =
b1 G
b0 >
b0 B
b0 7
b0 8
b0 ?
b0 C
b0 H
1%
#580
0%
#585
b10 =
b10 G
b1 >
b1 B
b1 7
b1 8
b1 ?
b1 C
b1 H
1%
#590
0%
#595
b11 =
b11 G
b10 >
b10 B
b10 7
b10 8
b10 ?
b10 C
b10 H
1%
#600
0%
#605
b0 =
b0 G
b11 >
b11 B
b11 7
b11 8
b11 ?
b11 C
b11 H
1%
#610
0%
#615
b1 =
b1 G
b0 >
b0 B
b0 7
b0 8
b0 ?
b0 C
b0 H
1%
#620
0%
#625
b10 =
b10 G
b1 >
b1 B
b1 7
b1 8
b1 ?
b1 C
b1 H
1%
#630
0%
#635
b11 =
b11 G
b10 >
b10 B
b10 7
b10 8
b10 ?
b10 C
b10 H
1%
#640
0%
#645
b0 =
b0 G
b11 >
b11 B
b11 7
b11 8
b11 ?
b11 C
b11 H
1%
#650
0%
#655
b1 =
b1 G
b0 >
b0 B
b0 7
b0 8
b0 ?
b0 C
b0 H
1%
#660
0%
#665
b10 =
b10 G
b1 >
b1 B
b1 7
b1 8
b1 ?
b1 C
b1 H
1%
#670
0%
#675
b11 =
b11 G
b10 >
b10 B
b10 7
b10 8
b10 ?
b10 C
b10 H
1%
#680
0%
#685
b0 =
b0 G
b11 >
b11 B
b11 7
b11 8
b11 ?
b11 C
b11 H
1%
#690
0%
#695
b1 =
b1 G
b0 >
b0 B
b0 7
b0 8
b0 ?
b0 C
b0 H
1%
#700
0%
#705
b10 =
b10 G
b1 >
b1 B
b1 7
b1 8
b1 ?
b1 C
b1 H
1%
#710
0%
#715
b11 =
b11 G
b10 >
b10 B
b10 7
b10 8
b10 ?
b10 C
b10 H
1%
#720
0%
#725
b0 =
b0 G
b11 >
b11 B
b11 7
b11 8
b11 ?
b11 C
b11 H
1%
#730
0%
#735
b1 =
b1 G
b0 >
b0 B
b0 7
b0 8
b0 ?
b0 C
b0 H
1%
#740
0%
#745
b10 =
b10 G
b1 >
b1 B
b1 7
b1 8
b1 ?
b1 C
b1 H
1%
#750
0%
#755
b11 =
b11 G
b10 >
b10 B
b10 7
b10 8
b10 ?
b10 C
b10 H
1%
#760
0%
#765
b0 =
b0 G
b11 >
b11 B
b11 7
b11 8
b11 ?
b11 C
b11 H
1%
#770
0%
#775
b1 =
b1 G
b0 >
b0 B
b0 7
b0 8
b0 ?
b0 C
b0 H
1%
#780
0%
#785
b10 =
b10 G
b1 >
b1 B
b1 7
b1 8
b1 ?
b1 C
b1 H
1%
#790
0%
#795
b11 =
b11 G
b10 >
b10 B
b10 7
b10 8
b10 ?
b10 C
b10 H
1%
#800
0%
#805
b0 =
b0 G
b11 >
b11 B
b11 7
b11 8
b11 ?
b11 C
b11 H
1%
#810
0%
#815
b1 =
b1 G
b0 >
b0 B
b0 7
b0 8
b0 ?
b0 C
b0 H
1%
#820
0%
#825
b10 =
b10 G
b1 >
b1 B
b1 7
b1 8
b1 ?
b1 C
b1 H
1%
#830
0%
#835
b11 =
b11 G
b10 >
b10 B
b10 7
b10 8
b10 ?
b10 C
b10 H
1%
#840
0%
#845
b0 =
b0 G
b11 >
b11 B
b11 7
b11 8
b11 ?
b11 C
b11 H
1%
#850
0%
#855
b1 =
b1 G
b0 >
b0 B
b0 7
b0 8
b0 ?
b0 C
b0 H
1%
#860
0%
#865
b10 =
b10 G
b1 >
b1 B
b1 7
b1 8
b1 ?
b1 C
b1 H
1%
#870
0%
#875
b11 =
b11 G
b10 >
b10 B
b10 7
b10 8
b10 ?
b10 C
b10 H
1%
#880
0%
#885
b0 =
b0 G
b11 >
b11 B
b11 7
b11 8
b11 ?
b11 C
b11 H
1%
#890
0%
#895
b1 =
b1 G
b0 >
b0 B
b0 7
b0 8
b0 ?
b0 C
b0 H
1%
#900
0%
#905
b10 =
b10 G
b1 >
b1 B
b1 7
b1 8
b1 ?
b1 C
b1 H
1%
#910
0%
#915
b11 =
b11 G
b10 >
b10 B
b10 7
b10 8
b10 ?
b10 C
b10 H
1%
#920
0%
#925
b0 =
b0 G
b11 >
b11 B
b11 7
b11 8
b11 ?
b11 C
b11 H
1%
#930
0%
#935
b1 =
b1 G
b0 >
b0 B
b0 7
b0 8
b0 ?
b0 C
b0 H
1%
#940
0%
#945
b10 =
b10 G
b1 >
b1 B
b1 7
b1 8
b1 ?
b1 C
b1 H
1%
#950
0%
#955
b11 =
b11 G
b10 >
b10 B
b10 7
b10 8
b10 ?
b10 C
b10 H
1%
#960
0%
#965
b0 =
b0 G
b11 >
b11 B
b11 7
b11 8
b11 ?
b11 C
b11 H
1%
#970
0%
#975
b1 =
b1 G
b0 >
b0 B
b0 7
b0 8
b0 ?
b0 C
b0 H
1%
#980
0%
#985
b10 =
b10 G
b1 >
b1 B
b1 7
b1 8
b1 ?
b1 C
b1 H
1%
#990
0%
#995
b11 =
b11 G
b10 >
b10 B
b10 7
b10 8
b10 ?
b10 C
b10 H
1%
#1000
0%
#1005
b0 =
b0 G
b11 >
b11 B
b11 7
b11 8
b11 ?
b11 C
b11 H
1%
